%YAML 1.1
%TAG !u! tag:unity3d.com,2011:
--- !u!114 &11400000
MonoBehaviour:
  m_ObjectHideFlags: 0
  m_CorrespondingSourceObject: {fileID: 0}
  m_PrefabInstance: {fileID: 0}
  m_PrefabAsset: {fileID: 0}
  m_GameObject: {fileID: 0}
  m_Enabled: 1
  m_EditorHideFlags: 0
  m_Script: {fileID: 11500000, guid: bf91d07b3b7df2542ac041b006fadb7c, type: 3}
  m_Name: Gun2
  m_EditorClassIdentifier: 
  Damage: 60
  GunCartridge: 20
  TotalCapacityGun: 120
  NameGun: GunTwo
  DescriptionGun: Disparo Gravitatorio
  ImageGun: {fileID: 21300000, guid: b641a87708ad74743a203b3b316034f0, type: 3}
  PrefabGun: {fileID: 1257507378513579250, guid: 3509e431dc799574d8c9376108d0753b, type: 3}
  PrefabBullet: {fileID: 6726184486711719175, guid: 970e50896017c2b49b9f17a9e902df38, type: 3}
